./ CREATE 3a894c3efe104076baf2ed30ab757e3b0.ts
./ OPEN 3a894c3efe104076baf2ed30ab757e3b0.ts
./ MODIFY 3a894c3efe104076baf2ed30ab757e3b0.ts



./ CREATE 3a894c3efe104076baf2ed30ab757e3b.m3u8.tmp
./ OPEN 3a894c3efe104076baf2ed30ab757e3b.m3u8.tmp
./ MODIFY 3a894c3efe104076baf2ed30ab757e3b.m3u8.tmp
./ CLOSE_WRITE,CLOSE 3a894c3efe104076baf2ed30ab757e3b.m3u8.tmp
./ MOVED_FROM 3a894c3efe104076baf2ed30ab757e3b.m3u8.tmp
./ MOVED_TO 3a894c3efe104076baf2ed30ab757e3b.m3u8

./ MODIFY 3a894c3efe104076baf2ed30ab757e3b0.ts
./ CLOSE_WRITE,CLOSE 3a894c3efe104076baf2ed30ab757e3b0.ts

./ CREATE 3a894c3efe104076baf2ed30ab757e3b1.ts
./ OPEN 3a894c3efe104076baf2ed30ab757e3b1.ts
./ MODIFY 3a894c3efe104076baf2ed30ab757e3b1.ts



./ CREATE 3a894c3efe104076baf2ed30ab757e3b.m3u8.tmp
./ OPEN 3a894c3efe104076baf2ed30ab757e3b.m3u8.tmp
./ MODIFY 3a894c3efe104076baf2ed30ab757e3b.m3u8.tmp
./ CLOSE_WRITE,CLOSE 3a894c3efe104076baf2ed30ab757e3b.m3u8.tmp
./ MOVED_FROM 3a894c3efe104076baf2ed30ab757e3b.m3u8.tmp
./ MOVED_TO 3a894c3efe104076baf2ed30ab757e3b.m3u8

./ MODIFY 3a894c3efe104076baf2ed30ab757e3b1.ts
./ CLOSE_WRITE,CLOSE 3a894c3efe104076baf2ed30ab757e3b1.ts

./ CREATE 3a894c3efe104076baf2ed30ab757e3b2.ts
./ OPEN 3a894c3efe104076baf2ed30ab757e3b2.ts
./ MODIFY 3a894c3efe104076baf2ed30ab757e3b2.ts
./ CREATE 3a894c3efe104076baf2ed30ab757e3b.m3u8.tmp
./ OPEN 3a894c3efe104076baf2ed30ab757e3b.m3u8.tmp
./ MODIFY 3a894c3efe104076baf2ed30ab757e3b.m3u8.tmp
./ CLOSE_WRITE,CLOSE 3a894c3efe104076baf2ed30ab757e3b.m3u8.tmp
./ MOVED_FROM 3a894c3efe104076baf2ed30ab757e3b.m3u8.tmp
./ MOVED_TO 3a894c3efe104076baf2ed30ab757e3b.m3u8
./ MODIFY 3a894c3efe104076baf2ed30ab757e3b2.ts
./ CLOSE_WRITE,CLOSE 3a894c3efe104076baf2ed30ab757e3b2.ts
./ CREATE 3a894c3efe104076baf2ed30ab757e3b3.ts
